<?xml version="1.0" encoding="UTF-8" standalone="no"?>
<!-- Created with Inkscape (http://www.inkscape.org/) -->

<svg
   xmlns:dc="http://purl.org/dc/elements/1.1/"
   xmlns:cc="http://creativecommons.org/ns#"
   xmlns:rdf="http://www.w3.org/1999/02/22-rdf-syntax-ns#"
   xmlns:svg="http://www.w3.org/2000/svg"
   xmlns="http://www.w3.org/2000/svg"
   xmlns:sodipodi="http://sodipodi.sourceforge.net/DTD/sodipodi-0.dtd"
   xmlns:inkscape="http://www.inkscape.org/namespaces/inkscape"
   width="70.807289mm"
   height="71.388145mm"
   viewBox="0 0 70.807289 71.388145"
   version="1.1"
   id="svg1395"
   inkscape:version="0.92.3 (2405546, 2018-03-11)"
   sodipodi:docname="owl.svg">
  <defs
     id="defs1389">
    <clipPath
       id="Clip_1">
      <path
         inkscape:connector-curvature="0"
         d="M 0,418 H 400.407 V 0.816 H 0 Z"
         id="path2" />
    </clipPath>
  </defs>
  <sodipodi:namedview
     id="base"
     pagecolor="#ffffff"
     bordercolor="#666666"
     borderopacity="1.0"
     inkscape:pageopacity="0.0"
     inkscape:pageshadow="2"
     inkscape:zoom="0.35"
     inkscape:cx="-111.90523"
     inkscape:cy="140.62103"
     inkscape:document-units="mm"
     inkscape:current-layer="layer1"
     showgrid="false"
     fit-margin-top="0"
     fit-margin-left="0"
     fit-margin-right="0"
     fit-margin-bottom="0"
     inkscape:window-width="1920"
     inkscape:window-height="1031"
     inkscape:window-x="0"
     inkscape:window-y="25"
     inkscape:window-maximized="1" />
  <metadata
     id="metadata1392">
    <rdf:RDF>
      <cc:Work
         rdf:about="">
        <dc:format>image/svg+xml</dc:format>
        <dc:type
           rdf:resource="http://purl.org/dc/dcmitype/StillImage" />
        <dc:title></dc:title>
      </cc:Work>
    </rdf:RDF>
  </metadata>
  <g
     inkscape:label="Layer 1"
     inkscape:groupmode="layer"
     id="layer1"
     transform="translate(12.725075,-114.65117)">
    <g
       transform="matrix(0.18304171,0,0,0.18304171,-15.208964,109.52788)"
       id="g5227"
       inkscape:export-filename="/media/DOCUMENTS/proyectos/bibliotheque_anatole/git-bibou/bibou/app/images/owl.png"
       inkscape:export-xdpi="53.449291"
       inkscape:export-ydpi="53.449291">
      <g
         clip-path="url(#Clip_1)"
         id="g9">
        <path
           sodipodi:nodetypes="ccccccccccccsaaccccccccccccccccccccccccccccccccccccccccccccccccc"
           style="fill:#6e4100"
           inkscape:connector-curvature="0"
           d="m 397.335,233.56 c -6.056,-24.79 -18.605,-46.523 -36.572,-64.275 -9.416,-9.303 -14.898,-19.262 -16.867,-31.81 -0.051,-0.326 -0.132,-0.665 -0.284,-0.954 -0.87,-1.653 -0.635,-2.726 0.783,-4.29 2.724,-3.002 1.5,-5.892 -2.663,-6.639 -1.465,-0.263 -2.305,-0.448 -2.948,-1.943 -7.129,-16.579 -17.62,-30.713 -31.567,-42.419 1.229,-1.111 2.228,-1.982 3.192,-2.89 13.265,-12.489 14.347,-34.13 2.374,-47.373 -3.867,-4.278 -6.434,-3.923 -8.829,1.267 -5.883,12.755 -15.924,21.893 -26.419,30.994 -1.30151,-2.732016 -2.07635,-2.944409 -3.70935,-4.37916 0,0 -0.44805,-0.257238 -0.6961,-0.315008 -33.71823,-7.852879 -69.46963,-7.817855 -103.80638,-3.393521 -3.64945,0.470237 -9.49283,2.715354 -10.58117,3.145689 -4.096,1.358 -8.227,2.63 -12.252,4.177 -2.132,0.82 -3.6,0.573 -5.35,-0.978 -9.891,-8.763 -19.289,-17.867 -24.823,-30.229 -1.769,-3.951 -4.21,-4.265 -7.358,-1.227 -3.921,3.784 -6.597,8.42 -7.901,13.657 -3.734,15.007 0.343,27.585 12.514,37.541 -13.656,11.437 -23.992,25.133 -31.021,41.263 -1.186,2.722 -2.035,5.009 -5.813,3.213 -1.792,-0.851 -3.614,0.278 -4.438,2.217 -0.725,1.707 -0.444,4.005 1.095,4.429 6.22,1.716 3.094,5.655 2.438,8.97 -0.547,2.768 -1.449,5.466 -1.986,8.235 -4.739,24.459 -5.675,49.203 -5.308,74.025 0.045,3.074 -0.452,4.457 -3.951,4.369 -4.983,-0.126 -10.007,0.441 -14.819,1.809 -10.329,2.938 -20.453,6.251 -31.421,2.218 -3.56,-1.309 -5.313,1.366 -4.634,5.886 4.428,29.448 8.916,58.886 13.283,88.342 0.493,3.325 2.032,4.991 5.321,5.508 8.052,1.266 16.063,2.798 24.124,3.992 2.406,0.357 3.686,1.209 4.77,3.508 10.563,22.381 25.759,30.338 50.023,26.206 2.091,-0.356 3.46,-0.07 4.867,1.329 5.573,5.543 11.714,10.398 18.517,14.318 2.739,1.579 2.025,2.594 0.255,4.267 -3.804,3.597 -6.686,7.918 -8.333,12.863 -1.491,4.479 -1.173,8.973 2.31,12.592 3.277,3.404 7.268,3.557 11.552,2.07 1.187,-0.411 2.214,-1.43 3.841,0.31 5.566,5.952 10.786,6.244 17.602,1.777 1.073,-0.704 1.651,-2.116 3.752,-1.46 10.197,3.18 17.766,-0.803 21.022,-11.176 0.891,-2.84 1.799,-3.496 4.745,-3.195 12.443,1.274 24.936,1.254 37.384,0.059 2.888,-0.277 4.051,0.307 4.854,3.126 1.688,5.925 5.435,10.215 11.4,12.296 3.873,1.351 7.604,-1.335 10.91,-0.985 3.487,0.368 6.443,4.085 10.8,4.265 4.851,0.202 7.081,-3.785 10.509,-5.285 3.029,-1.327 7.718,2.441 11.794,0.018 0.987,-0.586 1.995,-1.293 2.697,-2.18 3.341,-4.221 3.311,-8.852 1.401,-13.644 -2.109,-5.291 -5.74,-9.541 -9.873,-13.789 6.704,-4.091 12.832,-8.367 18.427,-13.365 15.061,-13.453 25.646,-29.976 33.347,-48.491 0.794,-1.908 1.093,-3.936 4.377,-3.225 19.827,4.298 35.287,-3.2 47.111,-18.745 15.094,-19.845 16.508,-42.373 10.832,-65.607"
           id="path7" />
      </g>
      <path
         style="fill:#f2ecd9"
         inkscape:connector-curvature="0"
         d="m 85.352,138.219 c 0.372,0.074 0.705,0.083 0.99,0.205 4.888,2.095 10.795,3.143 14.373,6.6 3.79,3.662 0.121,9.664 0.393,14.652 0.537,9.824 1.364,19.534 4.815,28.903 5.409,14.687 16.554,22.378 31.032,26.2 17.514,4.623 35.459,5.552 53.436,6.167 24.152,0.827 48.273,0.471 72.315,-2.182 11.103,-1.226 22.092,-3.103 32.311,-7.915 2.226,-1.048 2.992,-0.816 3.516,1.674 0.918,4.363 3.121,8.124 6.937,10.588 1.84,1.188 1.468,2.726 1.499,4.341 0.179,9.593 3.57,17.263 13.127,20.861 2.533,0.954 1.642,2.274 1.243,3.857 -2.731,10.807 -5.617,21.577 -5.402,32.886 0.196,10.27 3.13,19.377 11.077,26.267 2.086,1.809 2.044,3.229 1.094,5.532 -18.102,43.922 -50.202,69.363 -97.896,74.059 -27.864,2.744 -55.189,1.021 -81.07,-11.047 -8.807,-4.106 -16.757,-9.5 -24.151,-15.783 -2.078,-1.766 -2.354,-2.694 0.343,-4.156 5.083,-2.755 9.192,-6.71 11.528,-12.064 1.171,-2.686 3.492,-2.413 5.404,-2.751 18.016,-3.189 36.06,-6.214 54.097,-9.277 8.034,-1.364 16.043,-2.916 24.117,-3.975 4.076,-0.535 5.666,-2.559 6.222,-6.35 2.679,-18.269 5.473,-36.522 8.242,-54.778 1.522,-10.031 3.007,-20.069 4.638,-30.083 1.362,-8.359 0.032,-9.888 -8.08,-8.029 -7.382,1.691 -14.207,1.634 -21.779,-0.76 -29.959,-9.472 -56.707,-1.815 -80.682,17.392 -2.088,1.673 -3.223,2.585 -5.644,0.406 -12.316,-11.088 -27.014,-17.39 -43.104,-20.657 -2.051,-0.417 -3.794,-0.355 -3.812,-3.315 -0.172,-28.493 0.37,-56.91 7.765,-84.704 0.253,-0.954 0.734,-1.848 1.106,-2.764"
         id="path13" />
      <path
         style="fill:#d5b58f"
         inkscape:connector-curvature="0"
         d="m 392.299,260.505 c -0.346,15.118 -6.413,32.145 -22.652,43.864 -10.097,7.287 -21.656,9.805 -33.398,3.588 -9.891,-5.237 -14.05,-17.107 -11.986,-31.024 1.395,-9.402 3.851,-18.547 6.123,-27.743 1.595,-6.458 0.8,-7.605 -5.702,-8.244 -7.569,-0.742 -11.695,-9.79 -7.495,-16.167 1.744,-2.65 1.338,-5.102 -1.846,-6.506 -8.028,-3.539 -9.928,-6.122 -9.386,-12.891 0.551,-6.894 4.703,-11.96 11.776,-13.751 3.684,-0.933 7.511,-1.385 11.302,-1.783 2.727,-0.287 5.072,-0.75 5.112,-4.11 0.036,-3.026 -2.101,-3.321 -4.54,-4.111 -15.102,-4.891 -26.239,-14.761 -33.672,-28.631 -2.619,-4.887 0.656,-9.657 6.277,-10.264 5.368,-0.58 10.226,1.26 14.859,3.55 27.726,13.705 47.715,35.164 61.95,62.293 7.819,14.901 13.239,30.498 13.278,51.93"
         id="path15" />
      <path
         sodipodi:nodetypes="cccccccccccccccccccccccccccccccccc"
         style="fill:#f2ecd9"
         inkscape:connector-curvature="0"
         d="m 309.317,40.06 c 9.163,17.443 0.249,35.564 -18.751,39.038 -2.894,0.529 -5.398,1.331 -4.939,4.875 0.384,2.961 2.953,4.123 5.21,3.133 8.791,-3.855 13.634,2.131 18.69,7.201 9.009,9.034 15.999,19.511 21.323,31.125 1.181,2.575 1.307,4.096 -1.785,5.204 -4.214,1.511 -8.643,5.329 -12.312,4.634 -3.606,-0.683 -3.553,-7.079 -5.323,-10.869 -10.338,-22.133 -28.262,-32.971 -50.11,-29.478 -12.011,1.92 -22.828,7.039 -32.461,14.522 -16.377,12.724 -19.618,12.75 -36.058,0.245 -11.359,-8.641 -23.932,-14.513 -38.318,-15.348 -21.113,-1.226 -39.149,11.747 -47.598,33.462 -1.159,2.981 -0.729,7.707 -3.795,8.524 -2.403,0.64 -5.711,-2.068 -8.602,-3.322 -6.734,-2.921 -6.694,-2.912 -3.564,-9.552 6.486,-13.761 15.501,-25.55 27.128,-35.383 2.225,-1.881 4.244,-3.002 7.161,-1.666 1.166,0.534 2.597,0.509 3.915,0.686 2.591,0.348 5.256,0.511 5.919,-2.842 0.693,-3.513 -1.558,-4.763 -4.578,-5.095 -6.602,-0.726 -11.971,-3.726 -16.375,-8.639 -7.33,-8.177 -8.456,-20.522 -2.498,-30.378 8.206,13.596 19.457,24.123 31.926,33.459 5.503,4.12 7.366,3.445 8.386,-3.282 0.295,-1.941 2.40208,-3.272637 3.44808,-3.596637 4.763,-1.475 8.49788,-2.911519 13.30588,-4.239519 2.223,-0.613 5.78921,-1.134351 7.77868,-0.906716 6.60072,7.88e-4 62.66623,-2.051927 67.80732,-0.522999 0,0 23.43478,3.443064 26.98479,6.011726 -0.395,3.02 1.26225,9.992145 4.55125,7.586145 12.301,-9.001 23.519,-19.104 31.818,-32.087 0.436,-0.682 0.915,-1.336 1.715,-2.499"
         id="path17" />
      <path
         style="fill:#b09eb9"
         inkscape:connector-curvature="0"
         d="m 130.852,292.225 c 0.001,-9.319 0.03,-18.639 -0.019,-27.958 -0.012,-2.341 0.153,-3.972 3.169,-4.547 31.317,-5.973 62.614,-12.05 93.879,-18.286 3.28,-0.654 3.361,0.569 2.995,2.941 -3.928,25.44 -7.937,50.868 -11.677,76.335 -0.48,3.267 -2.387,3.558 -4.663,3.948 -23.241,3.987 -46.489,7.925 -69.724,11.946 -3.166,0.548 -5.457,0.52 -5.917,-3.584 -0.297,-2.647 -1.54,-5.433 -3.909,-6.723 -4.342,-2.365 -4.25,-6.05 -4.177,-10.108 0.145,-7.986 0.043,-15.976 0.043,-23.964"
         id="path19" />
      <path
         style="fill:#b09eb9"
         inkscape:connector-curvature="0"
         d="m 122.84,319.07 c -19.145,-13.102 -23.948,-13.14 -31.36,-0.438 -2.15,-0.847 -2.946,-3.003 -4.271,-4.583 -4.609,-5.497 -10.275,-8.812 -17.495,-7.089 -6.848,1.633 -9.382,7.396 -10.828,13.665 -0.335,1.452 -0.718,2.943 -0.711,4.414 0.012,2.286 -0.835,2.824 -3.036,2.403 -5.546,-1.061 -11.113,-2.049 -16.709,-2.789 -2.921,-0.386 -3.851,-2.063 -4.23,-4.593 -2.728,-18.238 -5.482,-36.472 -8.232,-54.706 -1.206,-7.993 -2.421,-15.984 -3.718,-24.538 14.175,2.738 27.824,5.347 41.461,8.014 18.423,3.602 36.835,7.267 55.262,10.849 2.047,0.398 3.909,0.497 3.899,3.385 -0.064,18.57 -0.032,37.141 -0.032,56.006"
         id="path21" />
      <path
         style="fill:#fefefe"
         inkscape:connector-curvature="0"
         d="m 142.152,187.725 c 8.6,3.178 17.344,4.484 26.399,2.143 11.501,-2.973 19.633,-9.974 26.165,-22.946 1.931,8.345 6.33,14.802 11.605,20.723 3.507,3.935 4.789,3.932 8.273,-0.131 4.99,-5.819 9.454,-11.97 11.357,-20.631 7.535,15.095 18.592,23.734 34.986,24.048 16.219,0.312 27.973,-7.062 35.673,-21.602 3.913,3.43 8.055,6.52 11.499,10.253 2.72,2.949 0.166,6.217 -1.709,8.309 -2.81,3.133 -5.206,6.324 -7.105,10.102 -1.626,3.235 -5.254,4.429 -8.419,5.85 -11.891,5.334 -24.65,6.837 -37.41,7.8 -31.247,2.358 -62.511,2.518 -93.708,-0.892 -6.428,-0.702 -12.883,-1.743 -19.139,-3.352 -19.492,-5.015 -28.101,-15.096 -30.52,-35.236 -0.914,-7.605 -1.419,-15.239 0.212,-23.409 2.877,1.257 5.659,2.56 8.512,3.681 1.474,0.58 1.994,1.484 2.013,3.008 0.087,7.046 2.905,13.221 6.275,19.206 2.658,7.069 8.075,10.964 15.041,13.076"
         id="path23" />
      <path
         style="fill:#fefefe"
         inkscape:connector-curvature="0"
         d="m 306.177,132.944 c -0.145,0.551 -0.185,1.355 -0.393,1.4 -2.906,0.64 -5.921,0.148 -8.862,1.162 -1.441,0.497 -1.763,-1.658 -2.449,-2.688 -9.213,-13.834 -22.198,-19.901 -38.528,-17.631 -15.955,2.218 -27.745,13.68 -31.333,29.57 -0.684,3.031 -1.544,4.361 -5,4.147 -6.142,-0.379 -12.34,-0.37 -18.484,-0.004 -3.507,0.208 -4.357,-1.225 -5.047,-4.259 -3.308,-14.555 -12.317,-24.264 -26.535,-28.375 -14.002,-4.049 -26.708,-0.768 -37.418,9.277 -4.695,4.404 -8,9.835 -9.732,16.009 -0.748,2.663 -1.506,3.017 -3.956,2.014 -7.405,-3.031 -7.443,-2.938 -4.718,-10.649 7.745,-21.912 24.784,-33.401 45.16,-30.022 10.147,1.682 19.322,5.998 27.595,12.144 2.672,1.985 5.245,4.11 7.975,6.01 11.59,8.066 21.809,8.052 33.08,-0.423 7.328,-5.509 14.608,-10.94 23.232,-14.384 23.32,-9.314 42.99,-1.374 53.284,21.694 0.742,1.663 1.427,3.352 2.129,5.008"
         id="path25" />
      <path
         style="fill:#fefefe"
         inkscape:connector-curvature="0"
         d="m 130.975,162.805 c -6.207,-15.224 2.435,-32.96 18.67,-38.318 16.283,-5.373 34.175,4.431 38.261,20.967 4.806,19.447 -10.219,38.16 -29.831,37.156 0.039,-3.208 2.748,-5.261 3.518,-8.154 1.164,-1.495 3.055,-1.946 4.459,-3.11 4.024,-3.335 4.92,-8.873 2.049,-12.914 -2.835,-3.989 -6.95,-4.68 -11.85,-1.974 -1.155,0.638 -2.177,1.533 -3.524,1.803 -7.025,-1.982 -13.57,-1.699 -19.075,3.886 -0.663,0.674 -1.611,1.152 -2.677,0.658"
         id="path29" />
      <path
         style="fill:#fefefe"
         inkscape:connector-curvature="0"
         d="m 264.894,182.573 c -15.518,1.083 -28.515,-8.047 -32.038,-22.505 -3.469,-14.231 3.549,-28.502 16.968,-34.503 13.205,-5.905 28.859,-1.349 36.948,10.701 1.833,2.731 2.824,5.182 1.07,8.622 -2.189,4.293 -0.699,8.726 1.157,12.921 0.69,1.56 2.471,2.964 0.869,4.94 -0.472,0.193 -1.069,0.326 -1.41,0.013 -5.833,-5.346 -12.376,-5.152 -19.245,-2.529 -1.189,-0.272 -1.989,-1.139 -2.888,-1.871 -5.015,-4.088 -9.307,-3.936 -13.005,0.439 -3.699,4.379 -3.108,9.601 1.527,13.548 0.765,0.652 1.623,1.151 2.522,1.591 4.443,1.193 7.249,3.814 7.525,8.633"
         id="path31" />
      <path
         style="fill:#d5b58e"
         inkscape:connector-curvature="0"
         d="m 101.876,358.634 c -17.945,-0.016 -34.078,-14.673 -35.694,-31.056 -0.065,-0.659 -0.143,-1.354 -0.01,-1.989 0.871,-4.16 0.8,-9.257 5.805,-10.685 4.767,-1.361 7.563,2.569 10.167,5.789 3.055,3.779 5.19,8.119 6.502,12.801 0.647,2.309 1.71,4.194 4.294,3.976 2.74,-0.23 3.686,-2.306 4.072,-4.876 0.517,-3.438 1.097,-6.901 2.084,-10.224 1.491,-5.018 4.526,-6.368 9.124,-3.732 5.44,3.118 11.08,6.345 10.12,14.265 -0.202,1.657 1.048,3.143 2.871,3.646 2.092,0.578 3.5,-0.457 4.599,-2.116 0.774,-1.168 1.069,-3.219 3.04,-2.596 1.76,0.555 2.177,2.408 2.352,4.084 0.696,6.661 -2.459,11.554 -7.483,15.381 -6.875,5.237 -14.913,7.003 -21.843,7.332"
         id="path33" />
      <path
         style="fill:#ffe0c5"
         inkscape:connector-curvature="0"
         d="m 161.989,174.694 c 0.251,3.408 -2.163,5.498 -3.914,7.915 -12.098,0.175 -23.63,-8.253 -27.1,-19.804 3.322,-2.696 6.224,-6.093 10.796,-6.756 3.838,-0.556 7.633,-0.635 11.04,1.698 0.095,0.136 0.3,0.305 0.27,0.404 -2.545,8.489 1.207,13.578 8.908,16.543"
         id="path37" />
      <path
         style="fill:#ffe0c5"
         inkscape:connector-curvature="0"
         d="m 269.008,159.777 c 7.783,-4.833 14.666,-3.351 20.86,2.972 -4.153,11.863 -12.689,18.205 -24.974,19.824 -2.181,-3.003 -3.389,-7.014 -7.885,-7.624 0.473,-0.77 1.241,-1.029 2.061,-1.238 7.457,-1.901 9.289,-4.2 9.261,-11.638 -0.003,-0.849 0.03,-1.654 0.677,-2.296"
         id="path39" />
      <path
         style="fill:#ff8f75"
         inkscape:connector-curvature="0"
         d="m 167.974,395.774 c -3.281,-0.084 -5.159,1.406 -6.086,4.655 -1.006,3.53 -2.547,6.881 -6.176,8.645 -1.387,0.674 -2.862,1.302 -4.18,0.182 -1.13,-0.96 -0.871,-2.447 -0.59,-3.752 0.208,-0.964 0.698,-1.867 0.919,-2.83 0.477,-2.086 0.324,-3.944 -1.928,-5.063 -2.232,-1.109 -3.825,-0.277 -5.128,1.519 -1.671,2.301 -3.405,4.532 -6.116,5.688 -1.186,0.506 -2.43,1.381 -3.732,0.392 -1.221,-0.927 -1.337,-2.401 -0.931,-3.649 1.796,-5.519 5.062,-10.022 9.843,-13.366 0.846,-0.592 1.86,-0.801 2.851,-0.427 7.075,2.674 14.138,5.377 21.205,8.07 l 0.049,-0.064"
         id="path41" />
      <path
         style="fill:#ff8f75"
         inkscape:connector-curvature="0"
         d="m 252.629,395.29 c 7.365,-1.983 13.62,-4.174 19.708,-6.822 1.26,-0.548 2.391,-1.018 3.784,-0.465 3.377,1.339 10.098,10.769 10.073,14.302 -0.021,2.86 -1.156,3.922 -4.095,2.753 -2.78,-1.107 -4.686,-3.038 -6.293,-5.423 -1.445,-2.144 -3.244,-3.406 -5.847,-1.883 -2.341,1.37 -2.243,3.329 -1.384,5.61 0.783,2.079 2.416,4.743 -0.456,6.141 -2.541,1.236 -4.711,-0.756 -6.492,-2.567 -1.548,-1.575 -2.469,-3.574 -3.006,-5.664 -0.738,-2.875 -2.057,-5.137 -5.992,-5.982"
         id="path43" />
      <path
         style="fill:#fdfdfc"
         inkscape:connector-curvature="0"
         d="m 142.591,249.909 c 18.001,-11.62 37.139,-17.235 58.454,-11.437 -19.485,3.813 -38.969,7.625 -58.454,11.437"
         id="path45" />
      <path
         style="fill:#fdfdfc"
         inkscape:connector-curvature="0"
         d="m 108.24,249.39 c -18.912,-3.703 -37.511,-7.345 -56.134,-10.992 9.671,-6.742 46.017,0.24 56.134,10.992"
         id="path47" />
      <path
         style="fill:#ff8f75"
         inkscape:connector-curvature="0"
         d="m 210.353,162.993 c 1.97,0.353 3.786,0.57 5.543,1.017 2.754,0.701 3.855,2.39 2.694,5.188 -0.317,0.765 -0.553,1.579 -0.972,2.285 -2.135,3.598 -4.35,10.379 -7.304,9.379 -4.559,-1.543 -6.887,-7.583 -8.357,-12.794 -0.647,-2.294 0.749,-3.438 2.697,-3.951 1.912,-0.502 3.885,-0.775 5.699,-1.124"
         id="path49" />
      <path
         style="fill:#fd8e73"
         inkscape:connector-curvature="0"
         d="m 167.925,395.838 c 2.211,-0.463 4.299,0.206 6.324,0.876 1.824,0.604 5.459,-0.732 4.68,3.099 -0.765,3.766 -3.253,6.731 -7.289,7.216 -2.457,0.295 -2.104,-1.926 -1.787,-3.608 0.534,-2.835 0.862,-5.618 -1.878,-7.648 -0.001,10e-4 -0.05,0.065 -0.05,0.065"
         id="path51" />
      <path
         style="fill:#fc8e73"
         inkscape:connector-curvature="0"
         d="m 249.978,400.16 c -1.856,1.762 4.086,5.859 -1.786,6.688 -2.656,0.375 -7.612,-4.798 -7.028,-7.42 0.883,-3.962 4.9,-2.561 7.44,-3.041 3.063,-0.578 0.978,2.2 1.374,3.773"
         id="path53" />
      <path
         style="fill:#efe8d4"
         inkscape:connector-curvature="0"
         d="m 325.458,141.179 c 12.096,-5.731 8.977,-5.971 12.474,5.064 0.232,0.732 0.208,1.546 0.38,2.947 -4.519,-2.816 -8.52,-5.31 -12.854,-8.011"
         id="path55" />
      <path
         style="fill:#fbdec5"
         inkscape:connector-curvature="0"
         d="m 142.152,187.725 c -8.402,-0.343 -13.055,-4.389 -15.041,-13.076 4.052,5.465 9.328,9.522 15.041,13.076"
         id="path57" />
      <path
         style="fill:#f8f6f4"
         inkscape:connector-curvature="0"
         d="m 202.938,157.035 c -1.765,1.889 -4.465,2.103 -6.14,4.518 0.191,-4.683 0.191,-4.683 6.14,-4.518"
         id="path59" />
      <path
         style="fill:#d7cdc0"
         inkscape:connector-curvature="0"
         d="m 220.066,158.592 c -0.831,-0.336 -1.663,-0.671 -2.494,-1.007 2.186,-0.525 4.357,-1.804 6.284,0.25 -1.056,1.289 -2.522,0.529 -3.79,0.757"
         id="path61" />
      <path
         style="fill:#f5f2f0"
         inkscape:connector-curvature="0"
         d="m 220.066,158.592 c 1.049,-1.327 2.474,-0.769 3.79,-0.757 0.21,0.922 0.443,2.659 -0.061,2.586 -1.304,-0.191 -2.494,-1.167 -3.729,-1.829"
         id="path63" />
      <path
         style="fill:#6e4100"
         inkscape:connector-curvature="0"
         d="m 262.26,273.789 c -3.54,0.06 -6.965,-0.537 -10.114,-2.17 -3.329,-1.727 -5.448,-4.421 -5.276,-8.33 0.175,-3.996 2.696,-6.672 6.267,-7.474 5.709,-1.283 10.88,-3.441 16.032,-6.212 5.149,-2.769 10.172,0.826 10.316,6.622 0.229,9.217 -7.992,17.597 -17.225,17.564"
         id="path65" />
      <path
         style="fill:#6e4100"
         inkscape:connector-curvature="0"
         d="m 161.989,174.694 c -10.259,-1.838 -13.292,-7.438 -9.178,-16.947 5.104,-4.618 9.243,-5.627 13.355,-3.047 4.327,2.715 5.601,6.875 4.77,11.667 -0.855,4.93 -4.865,6.727 -8.947,8.327"
         id="path67" />
      <path
         style="fill:#6e4300"
         inkscape:connector-curvature="0"
         d="m 269.008,159.777 c 2.872,8.473 -2.068,16.088 -11.999,15.172 -5.696,-2.754 -7.829,-5.915 -7.325,-11.017 0.474,-4.796 3.133,-7.908 7.655,-9.371 5.402,-1.747 8.776,1.244 11.669,5.216"
         id="path69" />
      <path
         style="fill:#faf8f7"
         inkscape:connector-curvature="0"
         d="m 254.902,263.834 c 5.781,-2.207 11.562,-1.59 15.485,-6.466 -0.876,7.993 -6.278,10.324 -15.485,6.466"
         id="path71" />
    </g>
  </g>
</svg>
